<?xml version="1.0" standalone="no"?>
<!DOCTYPE svg PUBLIC "-//W3C//DTD SVG 1.1//EN" "http://www.w3.org/Graphics/SVG/1.1/DTD/svg11.dtd">
<svg xmlns="http://www.w3.org/2000/svg">
<metadata>Copyright (C) 2014 by original authors @ fontello.com</metadata>
<defs>
<font id="pchelp-icons" horiz-adv-x="1000" >
<font-face font-family="pchelp-icons" font-weight="400" font-stretch="normal" units-per-em="1000" ascent="850" descent="-150" />
<missing-glyph horiz-adv-x="1000" />
<glyph glyph-name="down-open-big" unicode="&#xe800;" d="m63 570l370-356 372 356q22 26 48 0 26-22 0-48l-396-392q-22-22-48 0l-396 392q-26 26 0 48 24 24 50 0z" horiz-adv-x="866" />
<glyph glyph-name="left-open-big" unicode="&#xe801;" d="m452-20q26-26 0-48-26-26-48 0l-392 394q-24 24 0 50l392 394q22 26 48 0 26-22 0-48l-358-372z" horiz-adv-x="465" />
<glyph glyph-name="right-open-big" unicode="&#xe802;" d="m13-20l358 370-358 372q-26 26 0 48 26 26 48 0l392-394q24-26 0-50l-392-394q-22-26-48 0-26 22 0 48z" horiz-adv-x="465" />
<glyph glyph-name="up-open-big" unicode="&#xe803;" d="m804 130l-372 358-370-358q-26-22-50 0-24 24 0 50l396 390q26 26 48 0l396-390q24-26 0-50-26-22-48 0z" horiz-adv-x="864" />
<glyph glyph-name="shareable" unicode="&#xe804;" d="m340 350q0 68 47 114t113 46 113-46 47-114q0-66-47-113t-113-47-113 47-47 113z m-114 60q-14-60-66-60l-160 0 0 120 118 0q40 124 145 202t237 78q164 0 284-116 16-18 16-43t-16-43q-18-16-43-16t-43 16q-78 82-198 82-100 0-176-62t-98-158z m614-60l160 0 0-120-118 0q-40-124-144-202t-238-78q-164 0-282 118-18 18-18 43t18 41q16 18 41 18t43-18q82-82 198-82 100 0 176 63t98 157q12 60 66 60z" horiz-adv-x="1000" />
<glyph glyph-name="share" unicode="&#xe805;" d="m650 200q62 0 106-43t44-107q0-62-44-106t-106-44-106 44-44 106q0 6 1 14t1 12l-260 156q-42-32-92-32-62 0-106 44t-44 106 44 106 106 44q54 0 92-30l260 156q0 4-1 12t-1 12q0 62 44 106t106 44 106-43 44-107q0-62-44-106t-106-44q-52 0-90 32l-262-156q2-8 2-26 0-16-2-24l262-156q36 30 90 30z" horiz-adv-x="800" />
<glyph glyph-name="network" unicode="&#xe806;" d="m224 504q-22 0-42-10-48 52-92 128 54 74 128 118 92-38 152-82-6-16-6-32 0-6 4-22-62-48-116-104-16 4-28 4z m-98-98q0-34 20-60-60-114-80-232-66 106-66 236 0 110 50 206 38-62 84-112-8-24-8-38z m336 318q-28 0-50-14-58 42-114 70 84 30 162 30 120 0 230-62-76-14-162-50-26 26-66 26z m146-460q-160 24-290 112 4 20 4 30 0 24-14 52 38 44 98 90 26-20 56-20 14 0 38 8 94-108 134-240-16-14-26-32z m128-132q38 14 54 60 58 4 108 18-46-146-166-232 6 48 6 98 0 10-1 28t-1 28z m-150 66q-190-96-304-272-90 36-158 110 12 144 80 274 6-2 20-2 30 0 52 14 142-98 310-124z m184 492q150-136 150-340 0-22-4-66-64-18-130-24-24 56-88 60-48 146-148 264 10 20 10 42l0 10q100 42 210 54z m-136-544q14-10 32-18 2-18 2-52 0-80-14-144-86-42-194-42-58 0-112 12 110 160 286 244z" horiz-adv-x="920" />
<glyph glyph-name="cc-by" unicode="&#xe807;" d="m480 526q-66 0-66 68t66 68q68 0 68-68t-68-68z m98-26q14 0 22-8 10-10 10-22l0-196-56 0 0-234-148 0 0 234-56 0 0 196q0 12 10 22 8 8 22 8l196 0z m-98 330q200 0 340-140t140-340q0-198-140-339t-340-141q-198 0-339 141t-141 339q0 200 141 340t339 140z m0-872q162 0 277 115t115 277q0 164-115 278t-277 114-277-114-115-278q0-162 115-277t277-115z" horiz-adv-x="960" />
<glyph glyph-name="keyboard" unicode="&#xe808;" d="m930 650q28 0 49-21t21-49l0-460q0-30-21-50t-49-20l-860 0q-28 0-49 20t-21 50l0 460q0 28 21 49t49 21l860 0z m-380-100l0-100 100 0 0 100-100 0z m150-150l-100 0 0-100 100 0 0 100z m-300 150l0-100 100 0 0 100-100 0z m150-150l-100 0 0-100 100 0 0 100z m-300 150l0-100 100 0 0 100-100 0z m150-150l-100 0 0-100 100 0 0 100z m-300 150l0-100 100 0 0 100-100 0z m150-150l-100 0 0-100 100 0 0 100z m-50-250l0 100-100 0 0-100 100 0z m550 0l0 100-500 0 0-100 500 0z m150 0l0 100-100 0 0-100 100 0z m-150 150l100 0 0 100-100 0 0-100z m150 150l0 100-200 0 0-100 200 0z" horiz-adv-x="1000" />
<glyph glyph-name="down-circled" unicode="&#xe809;" d="m460 810q190 0 325-135t135-325-135-325-325-135-325 135-135 325 135 325 325 135z m0-820q148 0 254 106t106 254q0 150-106 255t-254 105-254-105-106-255q0-148 106-254t254-106z m90 554l0-206 112 0-202-190-202 190 112 0 0 206 180 0z" horiz-adv-x="920" />
<glyph glyph-name="left-circled" unicode="&#xe80a;" d="m920 350q0-190-135-325t-325-135-325 135-135 325q0 192 135 326t325 134 325-134 135-326z m-820 0q0-148 106-254t254-106 254 106 106 254q0 150-106 255t-254 105-254-105-106-255z m552-90l-204 0 0-112-190 202 190 204 0-114 204 0 0-180z" horiz-adv-x="920" />
<glyph glyph-name="right-circled" unicode="&#xe80b;" d="m0 350q0 190 135 325t325 135 325-135 135-325-135-325-325-135-325 135-135 325z m820 0q0 150-105 255t-255 105q-148 0-254-105t-106-255q0-148 106-254t254-106q150 0 255 106t105 254z m-552 90l204 0 0 114 190-204-190-202 0 112-204 0 0 180z" horiz-adv-x="920" />
<glyph glyph-name="up-circled" unicode="&#xe80c;" d="m460-110q-190 0-325 135t-135 325q0 192 135 326t325 134 325-134 135-326q0-190-135-325t-325-135z m0 820q-148 0-254-105t-106-255q0-148 106-254t254-106q150 0 255 106t105 254q0 150-105 255t-255 105z m-90-552l0 204-112 0 202 192 202-192-112 0 0-204-180 0z" horiz-adv-x="920" />
<glyph glyph-name="paper-plane" unicode="&#xe80d;" d="m894 720q14 4 22-3t4-19q-2-6-72-310t-74-316q-2-14-14-19t-24 1l-248 134-30 16 22 26q388 420 394 426 4 4-1 9t-9 1l-550-402-112 44-190 76q-12 4-12 12t12 12q8 4 441 157t441 155z m-582-728l0 204 160-82q-130-116-142-128-18-14-18 6z" horiz-adv-x="921" />
</font>
</defs>
</svg>